{
"access_token": "< HUBSPOT_ACCESS_TOKEN>",
"debug": false,
    "start_time": "7 days ago",
    "objects": {
         "companies": {
            "add_properties": [
                "name",
                "hs_lastmodifieddate",
                "domain",
                "website",
                "phone",
                "description"
            ],
            "associations": ["companies", "deals"],
            "column_order": [
                "createdate",
                "hs_lastmodifieddate",
                "hs_object_id",
                "name"]
        },
        "owners": {},
        "archived_owners": {},
        "line_items": {
            "add_properties": [
                "name",
                "quantity",
                "gooddata_workspaces",
                "price",
                "hs_price_czk",
                "hs_acv",
                "hs_tcv",
                "hs_mrr",
                "discount",
                "hs_recurring_billing_period",
                "hs_recurring_billing_start_date",
                "hs_product_id",
                "hs_lastmodifieddate"
            ],
            "associations": ["companies", "deals"],
            "column_order": [
                "createdate",
                "discount",
                "gooddata_workspaces",
                "hs_acv",
                "hs_lastmodifieddate",
                "hs_mrr",
                "hs_object_id",
                "hs_product_id",
                "hs_recurring_billing_period",
                "hs_recurring_billing_start_date",
                "hs_tcv",
                "name",
                "price",
                "quantity",
                "asso_deals_id",
                "line_items_deals_id"
            ]
        },
        "products": {
            "add_properties": [
                "name",
                "quantity",
                "price",
                "hs_price_czk",
                "description",
                "hs_lastmodifieddate"
            ],
            "associations": ["deals", "companies"],
            "column_order": [
                "createdate",
                "description",
                "hs_lastmodifieddate",
                "hs_object_id",
                "hs_price_czk",
                "name",
                "price",
                "quantity"
            ]
        },
        "deals": {
            "properties_with_history": ["dealstage"],
            "add_properties": [
                "hubspot_owner_id",
                "dealname",
                "hs_lastmodifieddate",
                "amount",
                "closedate",
                "pipeline",
                "dealstage",
                "dealtype",
                "description"
            ],
            "associations": ["companies", "deals"],
            "column_order": [
                "createdate",
                "dealname",
                "hs_lastmodifieddate",
                "hs_object_id",
                "hubspot_owner_id",
                "asso_companies_id",
                "deals_companies_id"
            ]
        },
        "pipelines_deals": {
            "column_order": [
                "archived",
                "createdAt",
                "displayOrder",
                "id",
                "label",
                "updatedAt"
            ]
        }
    }
}

